<svg width="18" height="18" viewBox="0 0 18 18" fill="none" xmlns="http://www.w3.org/2000/svg">
<path fill-rule="evenodd" clip-rule="evenodd" d="M16.5352 17.084C16.0664 17.5527 15.36 17.7871 14.416 17.7871H3.18555C2.24154 17.7871 1.53353 17.5544 1.06152 17.0889C0.589518 16.6234 0.353516 15.9251 0.353516 14.9941V3.70508C0.353516 2.77409 0.589518 2.07585 1.06152 1.61035C1.53353 1.14486 2.24154 0.912109 3.18555 0.912109H14.416C15.36 0.912109 16.0664 1.14648 16.5352 1.61523C17.0039 2.08398 17.2383 2.7806 17.2383 3.70508V14.9941C17.2383 15.9186 17.0039 16.6152 16.5352 17.084ZM7.38477 13.7246C7.50195 13.7897 7.63542 13.8223 7.78516 13.8223C7.92188 13.8223 8.04883 13.7881 8.16602 13.7197C8.2832 13.6514 8.38737 13.5521 8.47852 13.4219L12.9023 6.45898C12.9544 6.37435 13.0016 6.28483 13.0439 6.19043C13.0863 6.09603 13.1074 6.00326 13.1074 5.91211C13.1074 5.7168 13.0358 5.56055 12.8926 5.44336C12.7493 5.32617 12.5866 5.26758 12.4043 5.26758C12.1634 5.26758 11.9648 5.39453 11.8086 5.64844L7.74609 12.1426L5.74414 9.62305C5.64648 9.48633 5.5472 9.39355 5.44629 9.34473C5.34538 9.2959 5.23633 9.27148 5.11914 9.27148C4.93034 9.27148 4.77083 9.33822 4.64062 9.47168C4.51042 9.60514 4.44531 9.76953 4.44531 9.96484C4.44531 10.056 4.46322 10.1471 4.49902 10.2383C4.53483 10.3294 4.58529 10.4173 4.65039 10.502L7.04297 13.4219C7.15365 13.5586 7.26758 13.6595 7.38477 13.7246Z" fill="#EC1C24"/>
</svg>
